<?xml version="1.0" encoding="UTF-8" standalone="no"?><svg xmlns="http://www.w3.org/2000/svg" xmlns:xlink="http://www.w3.org/1999/xlink" contentScriptType="application/ecmascript" contentStyleType="text/css" height="183px" preserveAspectRatio="none" style="width:699px;height:183px;" version="1.1" viewBox="0 0 699 183" width="699px" zoomAndPan="magnify"><defs><filter height="300%" id="f1dmtmfu1adzkl" width="300%" x="-1" y="-1"><feGaussianBlur result="blurOut" stdDeviation="2.0"/><feColorMatrix in="blurOut" result="blurOut2" type="matrix" values="0 0 0 0 0 0 0 0 0 0 0 0 0 0 0 0 0 0 .4 0"/><feOffset dx="4.0" dy="4.0" in="blurOut2" result="blurOut3"/><feBlend in="SourceGraphic" in2="blurOut3" mode="normal"/></filter></defs><g><!--class Rental--><rect fill="#FEFECE" filter="url(#f1dmtmfu1adzkl)" height="151.6406" id="Rental" style="stroke: #A80036; stroke-width: 1.5;" width="187" x="199.5" y="14.5"/><ellipse cx="270.75" cy="30.5" fill="#ADD1B2" rx="11" ry="11" style="stroke: #A80036; stroke-width: 1.0;"/><path d="M273.2231,36.6431 Q272.6421,36.9419 272.0029,37.0913 Q271.3638,37.2407 270.6582,37.2407 Q268.1514,37.2407 266.8315,35.5889 Q265.5117,33.937 265.5117,30.8159 Q265.5117,27.6865 266.8315,26.0347 Q268.1514,24.3828 270.6582,24.3828 Q271.3638,24.3828 272.0112,24.5322 Q272.6587,24.6816 273.2231,24.9805 L273.2231,27.7031 Q272.5923,27.1221 271.9988,26.8523 Q271.4053,26.5825 270.7744,26.5825 Q269.4297,26.5825 268.7449,27.6492 Q268.0601,28.7158 268.0601,30.8159 Q268.0601,32.9077 268.7449,33.9744 Q269.4297,35.041 270.7744,35.041 Q271.4053,35.041 271.9988,34.7712 Q272.5923,34.5015 273.2231,33.9204 Z "/><text fill="#000000" font-family="sans-serif" font-size="12" lengthAdjust="spacingAndGlyphs" textLength="36" x="291.25" y="35.0352">Rental</text><line style="stroke: #A80036; stroke-width: 1.5;" x1="200.5" x2="385.5" y1="46.5" y2="46.5"/><rect fill="none" height="6" style="stroke: #C82930; stroke-width: 1.0;" width="6" x="207.5" y="55.4775"/><text fill="#000000" font-family="sans-serif" font-size="11" lengthAdjust="spacingAndGlyphs" textLength="72" x="219.5" y="61.1348">Movie _movie</text><rect fill="none" height="6" style="stroke: #C82930; stroke-width: 1.0;" width="6" x="207.5" y="68.4326"/><text fill="#000000" font-family="sans-serif" font-size="11" lengthAdjust="spacingAndGlyphs" textLength="85" x="219.5" y="74.0898">int _daysRented</text><line style="stroke: #A80036; stroke-width: 1.5;" x1="200.5" x2="385.5" y1="80.4102" y2="80.4102"/><ellipse cx="210.5" cy="92.3877" fill="#84BE84" rx="3" ry="3" style="stroke: #038048; stroke-width: 1.0;"/><text fill="#000000" font-family="sans-serif" font-size="11" lengthAdjust="spacingAndGlyphs" textLength="160" x="219.5" y="95.0449">Rental (Movie, int daysRented)</text><ellipse cx="210.5" cy="105.3428" fill="#84BE84" rx="3" ry="3" style="stroke: #038048; stroke-width: 1.0;"/><text fill="#000000" font-family="sans-serif" font-size="11" lengthAdjust="spacingAndGlyphs" textLength="107" x="219.5" y="108">double getCharge ()</text><ellipse cx="210.5" cy="118.2979" fill="#84BE84" rx="3" ry="3" style="stroke: #038048; stroke-width: 1.0;"/><text fill="#000000" font-family="sans-serif" font-size="11" lengthAdjust="spacingAndGlyphs" textLength="108" x="219.5" y="120.9551">int getDaysRented ()</text><ellipse cx="210.5" cy="131.2529" fill="#84BE84" rx="3" ry="3" style="stroke: #038048; stroke-width: 1.0;"/><text fill="#000000" font-family="sans-serif" font-size="11" lengthAdjust="spacingAndGlyphs" textLength="161" x="219.5" y="133.9102">int getFrequentRenterPoints ()</text><ellipse cx="210.5" cy="144.208" fill="#84BE84" rx="3" ry="3" style="stroke: #038048; stroke-width: 1.0;"/><text fill="#000000" font-family="sans-serif" font-size="11" lengthAdjust="spacingAndGlyphs" textLength="93" x="219.5" y="146.8652">Movie getMovie ()</text><ellipse cx="210.5" cy="157.1631" fill="#84BE84" rx="3" ry="3" style="stroke: #038048; stroke-width: 1.0;"/><text fill="#000000" font-family="sans-serif" font-size="11" lengthAdjust="spacingAndGlyphs" textLength="116" x="219.5" y="159.8203">String getStatement ()</text><!--class Movie--><rect fill="#FEFECE" filter="url(#f1dmtmfu1adzkl)" height="164.5957" id="Movie" style="stroke: #A80036; stroke-width: 1.5;" width="266" x="422" y="8"/><ellipse cx="534.25" cy="24" fill="#ADD1B2" rx="11" ry="11" style="stroke: #A80036; stroke-width: 1.0;"/><path d="M536.7231,30.1431 Q536.1421,30.4419 535.5029,30.5913 Q534.8638,30.7407 534.1582,30.7407 Q531.6514,30.7407 530.3315,29.0889 Q529.0117,27.437 529.0117,24.3159 Q529.0117,21.1865 530.3315,19.5347 Q531.6514,17.8828 534.1582,17.8828 Q534.8638,17.8828 535.5112,18.0322 Q536.1587,18.1816 536.7231,18.4805 L536.7231,21.2031 Q536.0923,20.6221 535.4988,20.3523 Q534.9053,20.0825 534.2744,20.0825 Q532.9297,20.0825 532.2449,21.1492 Q531.5601,22.2158 531.5601,24.3159 Q531.5601,26.4077 532.2449,27.4744 Q532.9297,28.541 534.2744,28.541 Q534.9053,28.541 535.4988,28.2712 Q536.0923,28.0015 536.7231,27.4204 Z "/><text fill="#000000" font-family="sans-serif" font-size="12" lengthAdjust="spacingAndGlyphs" textLength="33" x="554.75" y="28.5352">Movie</text><line style="stroke: #A80036; stroke-width: 1.5;" x1="423" x2="687" y1="40" y2="40"/><rect fill="none" height="6" style="stroke: #C82930; stroke-width: 1.0;" width="6" x="430" y="48.9775"/><text fill="#000000" font-family="sans-serif" font-size="11" lengthAdjust="spacingAndGlyphs" textLength="61" x="442" y="54.6348">String _title</text><rect fill="none" height="6" style="stroke: #C82930; stroke-width: 1.0;" width="6" x="430" y="61.9326"/><text fill="#000000" font-family="sans-serif" font-size="11" lengthAdjust="spacingAndGlyphs" textLength="78" x="442" y="67.5898">int _priceCode</text><line style="stroke: #A80036; stroke-width: 1.5;" x1="423" x2="687" y1="73.9102" y2="73.9102"/><ellipse cx="433" cy="85.8877" fill="#84BE84" rx="3" ry="3" style="stroke: #038048; stroke-width: 1.0;"/><text fill="#000000" font-family="sans-serif" font-size="11" lengthAdjust="spacingAndGlyphs" textLength="175" x="442" y="88.5449">Movie (String title, int priceCode)</text><ellipse cx="433" cy="98.8428" fill="#84BE84" rx="3" ry="3" style="stroke: #038048; stroke-width: 1.0;"/><text fill="#000000" font-family="sans-serif" font-size="11" lengthAdjust="spacingAndGlyphs" textLength="186" x="442" y="101.5">double getCharge (int daysRented)</text><ellipse cx="433" cy="111.7979" fill="#84BE84" rx="3" ry="3" style="stroke: #038048; stroke-width: 1.0;"/><text fill="#000000" font-family="sans-serif" font-size="11" lengthAdjust="spacingAndGlyphs" textLength="240" x="442" y="114.4551">int getFrequentRenterPoints (int daysRented)</text><ellipse cx="433" cy="124.7529" fill="#84BE84" rx="3" ry="3" style="stroke: #038048; stroke-width: 1.0;"/><text fill="#000000" font-family="sans-serif" font-size="11" lengthAdjust="spacingAndGlyphs" textLength="99" x="442" y="127.4102">int getPriceCode ()</text><ellipse cx="433" cy="137.708" fill="#84BE84" rx="3" ry="3" style="stroke: #038048; stroke-width: 1.0;"/><text fill="#000000" font-family="sans-serif" font-size="11" lengthAdjust="spacingAndGlyphs" textLength="206" x="442" y="140.3652">String getStatement (int daysRented) ()</text><ellipse cx="433" cy="150.6631" fill="#84BE84" rx="3" ry="3" style="stroke: #038048; stroke-width: 1.0;"/><text fill="#000000" font-family="sans-serif" font-size="11" lengthAdjust="spacingAndGlyphs" textLength="86" x="442" y="153.3203">String getTitle ()</text><ellipse cx="433" cy="163.6182" fill="#84BE84" rx="3" ry="3" style="stroke: #038048; stroke-width: 1.0;"/><text fill="#000000" font-family="sans-serif" font-size="11" lengthAdjust="spacingAndGlyphs" textLength="179" x="442" y="166.2754">void setPriceCode (int priceCode)</text><!--class Customer--><rect fill="#FEFECE" filter="url(#f1dmtmfu1adzkl)" height="125.7305" id="Customer" style="stroke: #A80036; stroke-width: 1.5;" width="158" x="6" y="27.5"/><ellipse cx="53.25" cy="43.5" fill="#ADD1B2" rx="11" ry="11" style="stroke: #A80036; stroke-width: 1.0;"/><path d="M55.7231,49.6431 Q55.1421,49.9419 54.5029,50.0913 Q53.8638,50.2407 53.1582,50.2407 Q50.6514,50.2407 49.3315,48.5889 Q48.0117,46.937 48.0117,43.8159 Q48.0117,40.6865 49.3315,39.0347 Q50.6514,37.3828 53.1582,37.3828 Q53.8638,37.3828 54.5112,37.5322 Q55.1587,37.6816 55.7231,37.9805 L55.7231,40.7031 Q55.0923,40.1221 54.4988,39.8523 Q53.9053,39.5825 53.2744,39.5825 Q51.9297,39.5825 51.2449,40.6492 Q50.5601,41.7158 50.5601,43.8159 Q50.5601,45.9077 51.2449,46.9744 Q51.9297,48.041 53.2744,48.041 Q53.9053,48.041 54.4988,47.7712 Q55.0923,47.5015 55.7231,46.9204 Z "/><text fill="#000000" font-family="sans-serif" font-size="12" lengthAdjust="spacingAndGlyphs" textLength="55" x="73.75" y="48.0352">Customer</text><line style="stroke: #A80036; stroke-width: 1.5;" x1="7" x2="163" y1="59.5" y2="59.5"/><rect fill="none" height="6" style="stroke: #C82930; stroke-width: 1.0;" width="6" x="14" y="68.4775"/><text fill="#000000" font-family="sans-serif" font-size="11" lengthAdjust="spacingAndGlyphs" textLength="70" x="26" y="74.1348">String _name</text><rect fill="none" height="6" style="stroke: #C82930; stroke-width: 1.0;" width="6" x="14" y="81.4326"/><text fill="#000000" font-family="sans-serif" font-size="11" lengthAdjust="spacingAndGlyphs" textLength="132" x="26" y="87.0898">Vector&lt;Rental&gt; _rentals</text><line style="stroke: #A80036; stroke-width: 1.5;" x1="7" x2="163" y1="93.4102" y2="93.4102"/><ellipse cx="17" cy="105.3877" fill="#84BE84" rx="3" ry="3" style="stroke: #038048; stroke-width: 1.0;"/><text fill="#000000" font-family="sans-serif" font-size="11" lengthAdjust="spacingAndGlyphs" textLength="128" x="26" y="108.0449">Customer (String name)</text><ellipse cx="17" cy="118.3428" fill="#84BE84" rx="3" ry="3" style="stroke: #038048; stroke-width: 1.0;"/><text fill="#000000" font-family="sans-serif" font-size="11" lengthAdjust="spacingAndGlyphs" textLength="123" x="26" y="121">void addRental (Rental)</text><ellipse cx="17" cy="131.2979" fill="#84BE84" rx="3" ry="3" style="stroke: #038048; stroke-width: 1.0;"/><text fill="#000000" font-family="sans-serif" font-size="11" lengthAdjust="spacingAndGlyphs" textLength="93" x="26" y="133.9551">String getName ()</text><ellipse cx="17" cy="144.2529" fill="#84BE84" rx="3" ry="3" style="stroke: #038048; stroke-width: 1.0;"/><text fill="#000000" font-family="sans-serif" font-size="11" lengthAdjust="spacingAndGlyphs" textLength="99" x="26" y="146.9102">String statement ()</text><!--link Rental to Movie--><path d="M399.8384,90.5 C407.1683,90.5 414.4983,90.5 421.8282,90.5 " fill="none" id="Rental-Movie" style="stroke: #A80036; stroke-width: 1.0;"/><polygon fill="#FFFFFF" points="386.6445,90.5,392.6445,94.5,398.6445,90.5,392.6445,86.5,386.6445,90.5" style="stroke: #A80036; stroke-width: 1.0;"/><text fill="#000000" font-family="sans-serif" font-size="13" lengthAdjust="spacingAndGlyphs" textLength="6" x="394.6479" y="87.475">*</text><text fill="#000000" font-family="sans-serif" font-size="13" lengthAdjust="spacingAndGlyphs" textLength="8" x="405.898" y="87.6554">1</text><!--link Customer to Rental--><path d="M177.4239,90.5 C184.76,90.5 192.0962,90.5 199.4324,90.5 " fill="none" id="Customer-Rental" style="stroke: #A80036; stroke-width: 1.0;"/><polygon fill="#A80036" points="164.2188,90.5,170.2188,94.5,176.2188,90.5,170.2188,86.5,164.2188,90.5" style="stroke: #A80036; stroke-width: 1.0;"/><text fill="#000000" font-family="sans-serif" font-size="13" lengthAdjust="spacingAndGlyphs" textLength="8" x="171.8905" y="87.4037">1</text><text fill="#000000" font-family="sans-serif" font-size="13" lengthAdjust="spacingAndGlyphs" textLength="6" x="185.4354" y="87.475">*</text><!--
@startuml
Rental   "*" o- "1" Movie
Customer "1" *- "*" Rental

class Movie {
    - String _title
    - int _priceCode
    + Movie (String title, int priceCode)
    + double getCharge (int daysRented)
    + int getFrequentRenterPoints (int daysRented)
    + int getPriceCode ()
    + String getStatement (int daysRented) ()
    + String getTitle ()
    + void setPriceCode (int priceCode)
    }

class Rental {
    - Movie _movie
    - int _daysRented
    + Rental (Movie, int daysRented)
    + double getCharge ()
    + int getDaysRented ()
    + int getFrequentRenterPoints ()
    + Movie getMovie ()
    + String getStatement ()
    }

class Customer {
    - String _name
    - Vector<Rental> _rentals
    + Customer (String name)
    + void addRental (Rental)
    + String getName ()
    + String statement ()
    }

@enduml

PlantUML version 1.2019.03(Sun Mar 10 06:04:44 CDT 2019)
(GPL source distribution)
Java Runtime: Java(TM) SE Runtime Environment
JVM: Java HotSpot(TM) 64-Bit Server VM
Java Version: 10.0.2+13
Operating System: Mac OS X
OS Version: 10.14.4
Default Encoding: UTF-8
Language: en
Country: US
--></g></svg>